// Sirina podatka. Dozvoljene vrednost 8 i 16
"dataSize", "8"

// Broj registara opste namene u procesoru. Dozvoljene vrednost 2, 4, 8, 16 i 32
"numberOfRegisters", "32"

// Pozicija unutar bajta koja odredjuje pocetni biti unutar reci na magistrali koji specificira kom registru opste namene se pristupa
"GPRARStartPosition", "0"

// Pozicija unutar bajta koja odredjuje krajnji biti unutar reci na magistrali koji specificira kom registru opste namene se pristupa
"GPRNumberOfBits", "5"

// Kasnjenje memorije. Dozvoljena vrednost > 0
"memdelay", "5"

// konfiguracija za fetch2 jedinicu se sastoji od veceg broja redova u kojima su opisani dekoderi koji se koriste u datoj jedinici.
// U jednom redu se nalazi konfiguracija za jedan dekoder.
// konfiguracija za dekoder se zadaje po formatu: Naziv jedinice ("FETCH2"), Tip ("DC"), Naziv dekodera ("DC1"), Broj kontrolnih signala ("2"), Naziv signala povezanog na ulaz E ("START"), Naziv signala povezanog na ulaz 0 dekodeta ("IR30"), Naziv signala povezanog na ulaz 1 dekodeta ("IR31"), Naziv izlaza 0 dekodeta ("Go"), ...
// Broj kontrolnih signala moze da ima vrednost 1, 2, 3 ili 4. Nazivi izlaznih pinova dekodera moraju da imaju jedinstveno ime. 
// Ime nekog pina moze da se sastoji od je jednog ili vise slova, znakova, ili znaka _
// voditi racuna da ostale jedinice procesora koriste ove pinove i da im pristupaju preko imena.
// primer konfiguracija fetch2 jedinice
"FETCH2", "DC", "DC1", "2", "START", "IR30", "IR31", "G0", "G1", "G2", "G3"
"FETCH2", "DC", "DC2", "3", "G0", "IR27", "IR28", "IR29", "G0_PG0", "G0_PG1", "G0_PG2", "G0_PG3", "G0_PG4", "G0_PG5", "G0_PG6", "G0_PG7"
"FETCH2", "DC", "DC3", "3", "G0_PG0", "IR24", "IR25", "IR26", "NOP", "HALT", "G0_PG0_2", "G0_PG0_3", "INTD", "INTE", "TRPD", "TRPE"
"FETCH2", "DC", "DC4", "3", "G0_PG1", "IR24", "IR25", "IR26", "G0_PG1_0", "JMP", "JSR", "RTS", "INT", "RTI", "G0_PG1_6", "G0_PG1_7"
"FETCH2", "DC", "DC5", "3", "G0_PG2", "IR24", "IR25", "IR26", "BEQL", "BNEQL", "BNEG", "BNNEG", "BOVF", "BNOVF", "BCAR", "BNCAR"
"FETCH2", "DC", "DC6", "3", "G0_PG3", "IR24", "IR25", "IR26", "BGRT", "BGRTE", "BLSS", "BLSSE", "BGRTU", "BGRTEU", "BLSSU", "BLSSEU"
"FETCH2", "DC", "DC7", "3", "G0_PG4", "IR24", "IR25", "IR26", "LDB", "LDW", "STB", "STW", "POPB", "POPW", "PUSHB", "PUSHW"
"FETCH2", "DC", "DC8", "3", "G0_PG5", "IR24", "IR25", "IR26", "LDIVTP", "STIVTP", "LDIMR", "STIMR", "LDSP", "STSP", "G0_PG5_6", "G0_PG5_7" 
"FETCH2", "DC", "DC9", "3", "G0_PG6", "IR24", "IR25", "IR26", "ADD", "SUB", "INC", "DEC", "AND", "OR", "XOR", "NOT"
"FETCH2", "DC", "DC10", "3", "G0_PG7", "IR24", "IR25", "IR26", "ASR", "LSR", "ROR", "RORC", "ASL", "LSL", "ROL", "ROLC"
"FETCH2", "DC", "DC11", "3", "1", "IR21", "IR22", "IR23", "regdir", "regind", "memdir", "memind", "regindpom", "bxpom", "pcpom", "imm"

// U jednom redu se nalazi konfiguracija za jedno logicko kolo.
// Konfiguracija za logicko kolo se zadaje po formatu: Naziv jedinice ("FETCH3"), Tip ("OR"), Naziv logickog kola ("ORgradr"), Broj ulaznih pinova signala ("2"), Naziv signala povezanog na ulaz 0 logickog kola ("Fetch2.STB"), Naziv signala povezanog na ulaz 1 logickog kola ("Fetch2.STW"), Naziv izlaza logickog kola ("ORgradr_0")
// Broj kontrolnih signala je veci od 0. 
// Ime nekog pina moze da se sastoji od je jednog ili vise slova, znakova, ili znaka _
// voditi racuna da ostale jedinice procesora koriste ove pinove i da im pristupaju preko imena.
// Dozvoljeno je postaviti parametar sa brojem ulaznih pinova za svako OR logicko kolo (AND nije dozvoljeno menjati), kao i imenovati ulazne signale povezane na svaki pin
// primer konfiguracija fetch3 jedinice
"FETCH3", "OR", "ORgropr", "10", "Fetch2.G3", "Fetch2.G2", "Fetch2.G1", "Fetch2.G0_PG5_7", "Fetch2.G0_PG5_6", "Fetch2.G0_PG1_7", "Fetch2.G0_PG1_6", "Fetch2.G0_PG1_0", "Fetch2.G0_PG0_3", "Fetch2.G0_PG0_2", "gropr"
"FETCH3", "OR", "ORgradr", "2", "Fetch2.STB", "Fetch2.STW", "ORgradr_0"
"FETCH3", "OR", "ORgradrMode", "1", "Fetch2.imm", "ORgradrMode_0"
"FETCH3", "OR", "ORI1", "12", "Fetch2.G0_PG7", "Fetch2.NOT", "Fetch2.DEC", "Fetch2.INC", "Fetch2.G0_PG5", "Fetch2.PUSHW", "Fetch2.PUSHB", "Fetch2.POPW", "Fetch2.POPB", "Fetch2.RTI", "Fetch2.RTS", "Fetch2.G0_PG0", "I1"
"FETCH3", "OR", "ORI2_brnch", "3", "Fetch2.G0_PG3", "Fetch2.G0_PG2", "Fetch2.INT", "I2_brnch"
"FETCH3", "OR", "ORI2_arlog_codes", "9", "Fetch2.XOR", "Fetch2.OR", "Fetch2.AND", "Fetch2.SUB", "Fetch2.ADD", "Fetch2.STW", "Fetch2.STB", "Fetch2.LDW", "Fetch2.LDB", "ORI2_arlog_codes_0"
"FETCH3", "OR", "ORI2_arlog_addressModes", "2", "Fetch2.regdir", "Fetch2.regind", "ORI2_arlog_addressModes_0"
"FETCH3", "OR", "ORI3_jump", "2", "Fetch2.JSR", "Fetch2.JMP", "I3_jump"
"FETCH3", "OR", "ORI3_arlog_codes", "6", "Fetch2.XOR", "Fetch2.OR", "Fetch2.AND", "Fetch2.SUB", "Fetch2.ADD", "Fetch2.LDB", "ORI3_arlog_codes_0"
"FETCH3", "OR", "ORI3_arlog_addressModes", "1", "Fetch2.imm", "ORI3_arlog_addressModes_0"
"FETCH3", "OR", "ORstore", "2", "Fetch2.STB", "Fetch2.STW", "store"
"FETCH3", "AND", "ANDgradr", "2", "ORgradr_0", "ORgradrMode_0", "gradr"
"FETCH3", "AND", "ANDI2_arlog", "2", "ORI2_arlog_codes_0", "ORI2_arlog_addressModes_0", "I2_arlog"
"FETCH3", "AND", "ANDI3_arlog", "2", "ORI3_arlog_codes_0", "ORI3_arlog_addressModes_0", "I3_arlog"

// U jednom redu se nalazi konfiguracija za jedno logicko kolo. Konfiguracija je data po istom foramtu kao i za prethodne stepene.
// Dozvoljeno je postaviti parametar sa brojem ulaznih pinova za jedno OR logicko kolo, kao i imenovati ulazne signale povezane na svaki pin tok logickog OR kola
// Nije dozvoljeno dodavati nove komponente, preimenovati postojece komponente, niti menjati naziv izlaznim pinovaima.
// primer konfiguracija exec3 jedinice
"EXEC3", "OR", "NZOR", "18", "Fetch2.LDB", "Fetch2.POPB", "Fetch2.ADD", "Fetch2.SUB", "Fetch2.INC", "Fetch2.DEC", "Fetch2.AND", "Fetch2.OR", "Fetch2.XOR", "Fetch2.NOT", "Fetch2.ASR", "Fetch2.LSR", "Fetch2.ROR", "Fetch2.RORC", "Fetch2.ASL", "Fetch2.LSL", "Fetch2.ROL", "Fetch2.ROLC", "NZOR"

// U jednom redu se nalazi konfiguracija za jedan uslov visestrukog uslovnog skoka kod koda operacije 
// Konfiguracija za logicko kolo se zadaje po formatu: Naziv jedinice ("KMOPR1"), Naziv logickog uslova za visestruki uslovni skok ("Fetch2.NOP"), Adresa u mikroprogramskoj memoriji ("62")
// Broj ulaza ije ogranicen
// primer konfiguracija kmopr1 jedinice
"KMOPR1", "Fetch2.NOP", "62"
"KMOPR1", "Fetch2.HALT", "63"
"KMOPR1", "Fetch2.INTD", "64"
"KMOPR1", "Fetch2.INTE", "65"
"KMOPR1", "Fetch2.TRPD", "66"
"KMOPR1", "Fetch2.TRPE", "67"
"KMOPR1", "Fetch2.LDB", "68"
"KMOPR1", "Fetch2.LDW", "70"
"KMOPR1", "Fetch2.STB", "71"
"KMOPR1", "Fetch2.STW", "77"
"KMOPR1", "Fetch2.POPB", "86"
"KMOPR1", "Fetch2.POPW", "91"
"KMOPR1", "Fetch2.PUSHB", "99"
"KMOPR1", "Fetch2.PUSHW", "104"
"KMOPR1", "Fetch2.LDIVTP", "113"
"KMOPR1", "Fetch2.STIVTP", "114"
"KMOPR1", "Fetch2.LDIMR", "115"
"KMOPR1", "Fetch2.STIMR", "116"
"KMOPR1", "Fetch2.LDSP", "117"
"KMOPR1", "Fetch2.STSP", "118"
"KMOPR1", "Fetch2.ADD", "119"
"KMOPR1", "Fetch2.SUB", "121"
"KMOPR1", "Fetch2.INC", "123"
"KMOPR1", "Fetch2.DEC", "125"
"KMOPR1", "Fetch2.AND", "127"
"KMOPR1", "Fetch2.OR", "129"
"KMOPR1", "Fetch2.XOR", "131"
"KMOPR1", "Fetch2.NOT", "133"
"KMOPR1", "Fetch2.ASR", "135"
"KMOPR1", "Fetch2.LSR", "135"
"KMOPR1", "Fetch2.ROR", "135"
"KMOPR1", "Fetch2.RORC", "135"
"KMOPR1", "Fetch2.ASL", "137"
"KMOPR1", "Fetch2.LSL", "137"
"KMOPR1", "Fetch2.ROL", "137"
"KMOPR1", "Fetch2.ROLC", "137"
"KMOPR1", "Fetch2.BEQL", "139"
"KMOPR1", "Fetch2.BNEQL", "139"
"KMOPR1", "Fetch2.BNEG", "139"
"KMOPR1", "Fetch2.BNNEG", "139"
"KMOPR1", "Fetch2.BOVF", "139"
"KMOPR1", "Fetch2.BNOVF", "139"
"KMOPR1", "Fetch2.BCAR", "139"
"KMOPR1", "Fetch2.BNCAR", "139"
"KMOPR1", "Fetch2.BGRT", "139"
"KMOPR1", "Fetch2.BGRTE", "139"
"KMOPR1", "Fetch2.BLSS", "139"
"KMOPR1", "Fetch2.BLSSE", "139"
"KMOPR1", "Fetch2.BGRTU", "139"
"KMOPR1", "Fetch2.BGRTEU", "139"
"KMOPR1", "Fetch2.BLSSU", "139"
"KMOPR1", "Fetch2.BLSSEU", "139"
"KMOPR1", "Fetch2.JMP", "141"
"KMOPR1", "Fetch2.INT", "142"
"KMOPR1", "Fetch2.JSR", "143"
"KMOPR1", "Fetch2.RTS", "152"
"KMOPR1", "Fetch2.RTI", "160"

// U jednom redu se nalazi konfiguracija za jedan uslov visestrukog uslovnog skoka kod nacina adresiranja
// Konfiguracija za logicko kolo se zadaje po formatu: Naziv jedinice ("KMADR1"), Naziv logickog uslova za visestruki uslovni skok ("Fetch2.regdir"), Adresa u mikroprogramskoj memoriji ("26")
// Broj ulaza ije ogranicen
// primer konfiguracija kmadr1 jedinice
"KMADR1", "Fetch2.regdir", "26"
"KMADR1", "Fetch2.regind", "30"
"KMADR1", "Fetch2.memdir", "32"
"KMADR1", "Fetch2.memind", "34"
"KMADR1", "Fetch2.regindpom", "43"
"KMADR1", "Fetch2.bxpom", "45"
"KMADR1", "Fetch2.pcpom", "48"
"KMADR1", "Fetch2.imm", "58"


// U jednom redu se nalazi konfiguracija za jedan izlaz dekodera u jedinici "Signali upravljacke jedinice"
// Konfiguracija jednog izlaza se zadaje po formatu: Naziv jedinice ("CONTRODC"), Izlaz dekodera koji se pozmatra ("2"), Uslov koji se posmatra ("Exec2.START"), Koplementarna vrednost ("#")
// Dozvoljene vrednost za: 
//	izlaz dekodera koji se posmatra [2-21]
//	uslov koji se posmatra ( pinovi definisani u ostalim jedinicama)
//	komplementarna vrednost "" ako se ne komplementira i "#" ako se komplementira
// primer konfiguracija kmadr1 jedinice

"CONTRODC", "2", "Exec2.START", "#"
"CONTRODC", "3", "Bus1.hack", ""
"CONTRODC", "4", "Bus1.fcCPU", "#"
"CONTRODC", "5", "Fetch3.gropr", "#"
"CONTRODC", "6", "Fetch3.I1", ""
"CONTRODC", "7", "Fetch3.gradr", "#"
"CONTRODC", "8", "Fetch3.I2_brnch", ""
"CONTRODC", "9", "Fetch3.I2_arlog", ""
"CONTRODC", "10", "Fetch3.I3_jump", ""
"CONTRODC", "11", "Fetch3.I3_arlog", ""
"CONTRODC", "12", "Fetch3.store", ""
"CONTRODC", "13", "Fetch2.LDW", ""
"CONTRODC", "14", "Fetch2.regdir", ""
"CONTRODC", "15", "Exec4.brpom", "#"
"CONTRODC", "16", "Intr1.prekid", "#"
"CONTRODC", "17", "Intr1.PRINS", "#"
"CONTRODC", "18", "Intr1.PRCOD", "#"
"CONTRODC", "19", "Intr1.PRADR", "#"
"CONTRODC", "20", "Intr1.PRINM", "#"
"CONTRODC", "21", "Intr2.printr", "#"
