0000000000000000000000000200			//// 00 ==> !Citanje instrukcije!
4010000480000000000000000000			//// 01
0000000000000000000000000302			//// 02
0404000000000000000000000403			//// 03
0040000040000000000000000002			//// 04
0000000000000000000000000507			//// 05
00000000000000000000100001A9			//// 06
000000000000000000000000063D			//// 07
4010000480000000000000000002			//// 08
0000000000000000000000000309			//// 09
040400000000000000000000040A			//// 0A
2040100020000000000000000000			//// 0B
000000000000000000000000070E			//// 0C
00000000000000000000080001A9			//// 0D
000000000000000000000000083D			//// 0E
0000000000000000000000000919			//// 0F
4010000480000000000000000000			//// 10
0000000000000000000000000311			//// 11
0404000000000000000000000412			//// 12
0040000010000000000000000A3D			//// 13
0000000000000000000000000B19			//// 14
4010000480000000000000000000			//// 15
0000000000000000000000000316			//// 16
0404000000000000000000000417			//// 17
0040000008000000000000000000			//// 18  ==> ! Formiranje adrese operanda !
0000000000000000000000001600			//// 19
0000000000000000000000000C3D			//// 1A ! Registarsko direktno adresiranje !
0000000000000000000000000D1D			//// 1B
000020000000020000000000013D			//// 1C
400020000000001000000000013D			//// 1D
4010200000000000000000000C3D			//// 1E ! Registarsko indirektno adresiranje !
0000000000000000000000000131			//// 1F
0810000001000000000000000C3D			//// 20 ! Memorijsko direktno adresiranje !
0000000000000000000000000131			//// 21
0810000001000000000000000000			//// 22 ! Memorijsko indirektno adresiranje !
0000000000000000000000000323			//// 23
0404000000000000000000000424			//// 24
0049000000000000000000000919			//// 25
0000000000000000000000000326			//// 26
0404000000000000000000000427			//// 27
0042000000000000000000000000			//// 28
0010800000000000000000000C3D			//// 29
0000000000000000000000000131			//// 2A
0010201001000000000000000C3D			//// 2B ! Registarsko indirektno sa pomerajem adresiranje!
0000000000000000000000000131			//// 2C
0000285001000000000000000131			//// 2D ! Bazno indeksno sa pomerajem adresiranje !
0010203000000000000000000C3D			//// 2E
0000000000000000000000000131			//// 2F
0010001081000000000000000C3D			//// 30 ! PC relativno sa pomerajem adresiranje !
0000000000000000000000000331			//// 31 ! Citanje operanda !
0404000000000000000000000432			//// 32
0000000000000000000000000D35			//// 33
004000000000020000000000013D			//// 34
0049000000000000000000000000			//// 35
0000000000000000000000000336			//// 36
0404000000000000000000000437			//// 37
0042000000000000000000000000			//// 38
000080000000001000000000013D			//// 39
0000000000000000000000000D3C			//// 3A ! Neposredno adresiranje !
100000000200020000000000013D			//// 3B
080000000100001000000000013D			//// 3C
0000000000000000000000001700			//// 3D
00000000000000000000000001A9			//// 3E ! NOP !
0000000000000000002000000100			//// 3F ! HALT !
00000000000000000400000001A9			//// 40 ! INTD !
00000000000000000800000001A9			//// 41 ! INTE !
00000000000000000100000001A9			//// 42 ! TRPD !
00000000000000000200000001A9			//// 43 ! TRPE !
1000000000002100000000000000			//// 44 ! LDB !
0000000000000001E000000001A9			//// 45 
00000000000000880000000001A9			//// 46 ! LDW !
0000000000000000000000000E4C			//// 47 ! STB !
0180000000001000000000000000			//// 48
0000000000000000000000000349			//// 49
022400000000000000000000044A			//// 4A
00000000000000000000000001A9			//// 4B
00004000000010000000000001A9			//// 4C
0000000000000000000000000E55			//// 4D ! STW !
0180000000000020000000000000			//// 4E
000000000000000000000000034F			//// 4F
0224000000000000000000000450			//// 50
0118000000000040000000000000			//// 51
0000000000000000000000000352			//// 52
0224000000000000000000000453			//// 53
00000000000000000000000001A9			//// 54
00004000000000400000000001A9			//// 55
0010028000000000000000000000            //// 56 ! POPB !
0000000000000000000000000357            //// 57
0404000000000000000000000458            //// 58
0040000000002200000000000000            //// 59
0000000000000001E000000001A9            //// 5A
0010028000000000000000000000            //// 5B ! POPW !
000000000000000000000000035C            //// 5C
040400000000000000000000045D            //// 5D
0052028000000000000000000000            //// 5E
000000000000000000000000035F            //// 5F
0404000000000000000000000460            //// 60
0041000000000000000000000000            //// 61
00008000000000900000000001A9            //// 62
0000010000000000000000000000            //// 63 ! PUSHB !
0190020000001000000000000000            //// 64
0000000000000000000000000365            //// 65
0224000000000000000000000466            //// 66
00000000000000000000000001A9            //// 67
0000010000000000000000000000            //// 68 ! PUSHW !
0190020000000020000000000000            //// 69
000000000000000000000000036A            //// 6A
022400000000000000000000046B            //// 6B
0000010000000000000000000000            //// 6C
0190020000000040000000000000            //// 6D
000000000000000000000000036E            //// 6E
022400000000000000000000046F            //// 6F
00000000000000000000000001A9            //// 70
40000000000000800000800001A9            //// 71 ! LDIVTP !
00000000000000400001000001A9            //// 72 ! STIVTP !
00000000000000800008000001A9            //// 73 ! LDIMR !
00000000000000400010000001A9            //// 74 ! STIMR !
00000200000000800000000001A9            //// 75 ! LDSP !
00000400000000400000000001A9            //// 76 ! STSP !
00000000004071006000000001A9            //// 77 ! ADD !
00000000000000018000000001A9            //// 78
0000000000207100600000000000            //// 79 ! SUB !
00000000000000018000000001A9            //// 7A
0000000000107000600000000000            //// 7B ! INC !
00000000000000018000000001A9            //// 7C
0000000000087000600000000000            //// 7D ! DEC !
00000000000000018000000001A9            //// 7E
0000000000047100000000000000            //// 7F ! AND !
0000000000000001E000000001A9            //// 80
0000000000027100000000000000            //// 81 ! OR !
0000000000000001E000000001A9            //// 82
0000000000017100000000000000            //// 83 ! XOR !
0000000000000001E000000001A9            //// 84
000000000000F000000000000000            //// 85 ! NOT !
0000000000000001E000000001A9            //// 86
0000000000000800400000000000            //// 87 ! ASR, LSR, ROR i ROLC !
0000000000000001A000000001A9            //// 88
0000000000000400400000000000            //// 89 ! ASL, LSL, ROL i ROLC !
0000000000000001A000000001A9            //// 8A
0000000000800000000000000FA9            //// 8B ! BEQL,…, BLSSEU !
00000018840000000000000001A9            //// 8C
00000008020000000000000001A9            //// 8D ! JMP !
00000000000000000000040001A9            //// 8E ! INT !
0000010000000000000000000000            //// 8F ! JSR !
0190020200000000000000000000            //// 90
0000000000000000000000000391            //// 91
0224000000000000000000000492            //// 92
0000010000000000000000000000            //// 93
0190020100000000000000000000            //// 94
0000000000000000000000000395            //// 95
0224000000000000000000000496            //// 96
00000008020000000000000001A9            //// 97 
0010028000000000000000000000            //// 98 ! RTI !
0000000000000000000000000399            //// 99
040400000000000000000000049A            //// 9A
0040000000000002000000000000            //// 9B
0010028000000000000000000000            //// 9C
000000000000000000000000039D            //// 9D
040400000000000000000000049E            //// 9E
0040000000000004000000000000            //// 9F
0010028000000000000000000000            //// A0 ! RTS !
00000000000000000000000003A1            //// A1
04040000000000000000000004A2            //// A2
0042000000000000000000000000            //// A3
0010028000000000000000000000            //// A4
00000000000000000000000003A5            //// A5
04040000000000000000000004A6            //// A6
0041000000000000000000000000            //// A7
00008008000000000000000001A9            //// A8
0000000000000000000000001000            //// A9 ! Opsluživanje prekida !
0000010000000000000000000000            //// AA ! Cuvanje konteksta procesora !
0190020200000000000000000000            //// AB
00000000000000000000000003AC            //// AC
02240000000000000000000004AD            //// AD
0000010000000000000000000000            //// AE
0190020100000000000000000000            //// AF
00000000000000000000000003B0            //// B0
02240000000000000000000004B1            //// B1
0000010000000000000000000000            //// B2
0190020000000000008000000000            //// B3
00000000000000000000000003B4            //// B4
02240000000000000000000004B5            //// B5
0000010000000000000000000000            //// B6
0190020000000000004000000000            //// B7
00000000000000000000000003B8            //// B8
02240000000000000000000004B9            //// B9
00000000000000000000000011BC            //// BA ! Skok na prekidnu rutinu!
00000000040000000004008001C5            //// BB
00000000000000000000000012BE            //// BC
00000000000000000004420001C5            //// BD
00000000000000000000000013C0            //// BE
00000000000000000004410001C5            //// BF
00000000000000000000000014C2            //// C0
00000000000000000004404001C5            //// C1
000000000000000000000000154C            //// C2
00000000000000000004202001C5            //// C3
0000000000000000000440000000            //// C4
0010001000000000000280000000            //// C5
00000000000000000000000003C6            //// C6
04040000000000000000000004C7            //// C7
0049000000000000000000000000            //// C8
00000000000000000000000003C9            //// C9
04040000000000000000000004CA            //// CA
0042000000000000000000000000            //// CB
0000800080000000050000000100            //// CC