100, 00 // sub r2, r2, 0 => r2 = r2 - r2 - 0		r2 = 0h
101, 00
102, 88
103, 04

104, 00 // ld r3, mem[r2 + 1000] => r3 = mem[1000]	r3 = 5h
105, 10
106, c8
107, 24

108, 04 // ld r4, mem[r2 + 1004] => r4 = mem[1004]	r4 = 2000h
109, 10
10a, 08
10b, 25

10c, 08 // ld r5, mem[r2 + 1008] => r5 = mem[1008]	r5 = 2100h
10d, 10
10e, 48
10f, 25

110, 00 // ld r6, mem[r4 + 0] => r6 = mem[r4]		do { r6 = ...
111, 00
112, 90
113, 25

114, 00 // ld r7, mem[r5 + 0] => r7 = mem[r5]		r7 = ...
115, 00
116, d4
117, 25

118, 00 // sub r7, r7, r6 => r7 = r7 - r6		r7 -= r6
119, 00
11a, d8
11b, 05

11c, 00 // st r7, mem[r5 + 0] => mem[r5] = r7		
11d, 00
11e, 5c
11f, 29

120, 04 // add r4, r2, #4 => r4 = r4 + 4		r4 += 4
121, 00
122, 08
123, 01

124, 04 // add r5, r2, #4 => r5 = r5 + 4		r5 += 4
125, 00
126, 48
127, 01

128, 01 // sub r3, r2, #1 => r3 = r3 - 1		r3 -= 1
129, 00
12a, c8
12b, 04

12c, 00 // cmp r3, r2					
12d, 00
12e, c8
12f, 10

130, dc // jne						} while(r3 > 0)
131, ff
132, 1f
133, 32

134, 00 //HALT
135, 00
136, 00
137, 64


1000, 05 // duzina nizova
1001, 00
1002, 00
1003, 00
1004, 00 // adresa niza A
1005, 20
1006, 00
1007, 00
1008, 00 // adresa niza B
1009, 21
100a, 00
100b, 00

2000, 06 // niz A
2001, 00
2002, 00
2003, 00
2004, 06
2005, 00
2006, 00
2007, 00
2008, 04
2009, 00
200a, 00
200b, 00
200c, 04
200d, 00
200e, 00
200f, 00
2010, 02
2011, 00
2012, 00
2013, 00

2100, 07 // niz B
2101, 00
2102, 00
2103, 00
2104, 04
2105, 00
2106, 00
2107, 00
2108, 08
2109, 00
210a, 00
210b, 00
210c, 09
210d, 00
210e, 00
210f, 00
2110, 01
2111, 00
2112, 00
2113, 00
